Dealing with Excel
…
19.5

(15.4-24.3)

Step 1: Import cells xlsx_cells()

library(tidyxl)
yrbs17 <- xlsx_cells("yrbs17_QN9.xlsx", 
                     sheets = "QN9",
                     check_filetype = TRUE,
                     include_blank_cells = FALSE)
yrbs17

## # A tibble: 167 x 21
##    sheet address   row   col is_blank data_type error logical numeric
##    <chr> <chr>   <int> <int> <lgl>    <chr>     <chr> <lgl>     <dbl>
##  1 QN9   A1          1     1 FALSE    character <NA>  NA           NA
##  2 QN9   C3          3     3 FALSE    character <NA>  NA           NA
##  3 QN9   G3          3     7 FALSE    character <NA>  NA           NA
##  4 QN9   K3          3    11 FALSE    character <NA>  NA           NA
##  5 QN9   C4          4     3 FALSE    character <NA>  NA           NA
##  6 QN9   D4          4     4 FALSE    character <NA>  NA           NA
##  7 QN9   E4          4     5 FALSE    character <NA>  NA           NA
##  8 QN9   G4          4     7 FALSE    character <NA>  NA           NA
##  9 QN9   H4          4     8 FALSE    character <NA>  NA           NA
## 10 QN9   I4          4     9 FALSE    character <NA>  NA           NA
## # ... with 157 more rows, and 12 more variables: date <dttm>,
## #   character <chr>, character_formatted <list>, formula <chr>,
## #   is_array <lgl>, formula_ref <chr>, formula_group <int>, comment <chr>,
## #   height <dbl>, width <dbl>, style_format <chr>, local_format_id <int>
…
